pipeline-example/nsp.vcd
$date
	Wed Mar 04 09:34:13 2026
$end
$version
	Icarus Verilog
$end
$timescale
	1ps
$end
$scope module tb_non_stall_pipeline $end
$var wire 100 ! dataout [99:0] $end
$var parameter 32 " WIDTH $end
$var reg 1 # clk $end
$var reg 100 $ datain [99:0] $end
$scope module nsp $end
$var wire 1 # clk $end
$var wire 100 % datain [99:0] $end
$var wire 100 & dataout [99:0] $end
$var parameter 32 ' WIDTH $end
$var reg 100 ( pipe1_data [99:0] $end
$var reg 100 ) pipe2_data [99:0] $end
$var reg 100 * pipe3_data [99:0] $end
$upscope $end
$upscope $end
$enddefinitions $end
$comment Show the parameter values. $end
$dumpall
b1100100 '
b1100100 "
$end
#0
$dumpvars
bx *
bx )
bx (
bx &
b0 %
b0 $
0#
bx !
$end
#5000
b0 (
1#
#10000
0#
b1101111010101101101111101110111111001010111111101011101010111110110111101010110110111110111011110000 $
b1101111010101101101111101110111111001010111111101011101010111110110111101010110110111110111011110000 %
#15000
b0 )
b1101111010101101101111101110111111001010111111101011101010111110110111101010110110111110111011110000 (
1#
#20000
0#
b0 $
b0 %
#25000
b0 (
b1101111010101101101111101110111111001010111111101011101010111110110111101010110110111110111011110000 )
b0 !
b0 &
b0 *
1#
#30000
0#
b1111111111111111111111111111111111111111111111111111111111111111111111111111111111111111111111111111 $
b1111111111111111111111111111111111111111111111111111111111111111111111111111111111111111111111111111 %
#35000
b1101111010101101101111101110111111001010111111101011101010111110110111101010110110111110111011110000 !
b1101111010101101101111101110111111001010111111101011101010111110110111101010110110111110111011110000 &
b1101111010101101101111101110111111001010111111101011101010111110110111101010110110111110111011110000 *
b0 )
b1111111111111111111111111111111111111111111111111111111111111111111111111111111111111111111111111111 (
1#
#40000
0#
b1001000110100010101100111100010011010101111001101111011110000000100100011010001010110011110001001 $
b1001000110100010101100111100010011010101111001101111011110000000100100011010001010110011110001001 %
#45000
b1001000110100010101100111100010011010101111001101111011110000000100100011010001010110011110001001 (
b1111111111111111111111111111111111111111111111111111111111111111111111111111111111111111111111111111 )
b0 !
b0 &
b0 *
1#
#50000
0#
#55000
b1111111111111111111111111111111111111111111111111111111111111111111111111111111111111111111111111111 !
b1111111111111111111111111111111111111111111111111111111111111111111111111111111111111111111111111111 &
b1111111111111111111111111111111111111111111111111111111111111111111111111111111111111111111111111111 *
b1001000110100010101100111100010011010101111001101111011110000000100100011010001010110011110001001 )
1#
#60000
0#
#65000
b1001000110100010101100111100010011010101111001101111011110000000100100011010001010110011110001001 !
b1001000110100010101100111100010011010101111001101111011110000000100100011010001010110011110001001 &
b1001000110100010101100111100010011010101111001101111011110000000100100011010001010110011110001001 *
1#
