pipeline-example/sp.vcd
$date
	Wed Mar 04 10:13:03 2026
$end
$version
	Icarus Verilog
$end
$timescale
	1ps
$end
$scope module tb_stallable_pipeline $end
$var wire 1 ! validout $end
$var wire 100 " dataout [99:0] $end
$var parameter 32 # WIDTH $end
$var reg 1 $ clk $end
$var reg 100 % datain [99:0] $end
$var reg 1 & out_allow $end
$var reg 1 ' rst $end
$var reg 1 ( validin $end
$var integer 32 ) counter [31:0] $end
$scope module sp $end
$var wire 1 $ clk $end
$var wire 100 * datain [99:0] $end
$var wire 100 + dataout [99:0] $end
$var wire 1 & out_allow $end
$var wire 1 , pipe1_allowin $end
$var wire 1 - pipe1_ready_go $end
$var wire 1 . pipe1_to_pipe2_valid $end
$var wire 1 / pipe2_allowin $end
$var wire 1 0 pipe2_ready_go $end
$var wire 1 1 pipe2_to_pipe3_valid $end
$var wire 1 2 pipe3_allowin $end
$var wire 1 3 pipe3_ready_go $end
$var wire 1 ' rst $end
$var wire 1 ( validin $end
$var wire 1 ! validout $end
$var parameter 32 4 WIDTH $end
$var reg 100 5 pipe1_data [99:0] $end
$var reg 1 6 pipe1_valid $end
$var reg 100 7 pipe2_data [99:0] $end
$var reg 1 8 pipe2_valid $end
$var reg 100 9 pipe3_data [99:0] $end
$var reg 1 : pipe3_valid $end
$upscope $end
$upscope $end
$enddefinitions $end
$comment Show the parameter values. $end
$dumpall
b1100100 4
b1100100 #
$end
#0
$dumpvars
x:
bx 9
x8
bx 7
x6
bx 5
13
12
x1
10
1/
x.
1-
1,
bx +
b0 *
b0 )
0(
1'
1&
b0 %
0$
bx "
x!
$end
#5000
0.
01
0!
06
08
0:
1$
#10000
0$
1(
b1111111111111111111111111111111111111111111111111111111111111111111111111111111111111111111111111111 %
b1111111111111111111111111111111111111111111111111111111111111111111111111111111111111111111111111111 *
0'
#15000
1.
b1111111111111111111111111111111111111111111111111111111111111111111111111111111111111111111111111111 5
16
1$
#20000
0$
0(
#25000
0.
11
06
b1111111111111111111111111111111111111111111111111111111111111111111111111111111111111111111111111111 7
18
1$
#30000
0$
#35000
1!
01
b1111111111111111111111111111111111111111111111111111111111111111111111111111111111111111111111111111 "
b1111111111111111111111111111111111111111111111111111111111111111111111111111111111111111111111111111 +
b1111111111111111111111111111111111111111111111111111111111111111111111111111111111111111111111111111 9
1:
08
1$
#40000
0$
#45000
0!
0:
1$
#50000
0$
#55000
1$
#60000
0$
1(
b11001010111111101011101010111110 %
b11001010111111101011101010111110 *
#65000
1.
b11001010111111101011101010111110 5
16
1$
#70000
0$
0&
0(
#75000
11
0.
b11001010111111101011101010111110 7
18
06
1$
#80000
0$
#85000
01
02
1!
08
b11001010111111101011101010111110 "
b11001010111111101011101010111110 +
b11001010111111101011101010111110 9
1:
1$
#90000
0$
#95000
1$
#100000
0$
#105000
1$
#110000
12
0$
1&
#115000
0!
0:
1$
#120000
0$
#125000
1$
#130000
0$
#135000
1$
#140000
0$
#145000
1$
#150000
0$
1'
#155000
1$
#160000
0$
#165000
1$
#170000
0$
0'
